Using infoelectoral to make electoral maps • infoelectoral
…
First, let’s group the parties by
codigo_partido_nacional and siglas and sum the
votes to see which party codes correspond to the main parties.

results %>%
  group_by(codigo_partido_nacional) %>%
  summarise(
    siglas_r = paste(unique(siglas)[1], collapse = ", "),
    votos = sum(votos)
  ) %>%
  arrange(-votos)

## # A tibble: 56 × 3
##    codigo_partido_nacional siglas_r      votos
##    <chr>                   <chr>         <dbl>
##  1 903316                  PP          7216024
##  2 903484                  PSOE        5530428
##  3 901079                  C´s         3500063
##  4 903736                  PODEMOS     3182256
##  5 905033                  EN COMÚ      927053
##  6 904850                  IULV-CA,UPe  923377
##  7 905008                  PODEMOS-COM  671077
##  8 905063                  ERC-CATSÍ    599375
##  9 904991                  DL           565742
## 10 905041                  PODEMOS-En   408417
## # ℹ 46 more rows
…
